<?xml version="1.0" encoding="UTF-8" standalone="no"?>
<svg width="1150px" height="781px" viewBox="0 0 1376 781" version="1.1" xmlns="http://www.w3.org/2000/svg"
     xmlns:xlink="http://www.w3.org/1999/xlink">
    <!-- Generator: Sketch 39.1 (31720) - http://www.bohemiancoding.com/sketch -->
    <title>background</title>
    <desc>Created with Sketch.</desc>
    <defs></defs>
    <g id="Page-1" stroke="none" stroke-width="1" fill="none" fill-rule="evenodd">
        <g id="Landing-Copy" transform="translate(-200.000000, -2926.000000)">
            <g id="what-theysay" transform="translate(-25.000000, 2627.000000)"></g>
            <g id="Group-2" transform="translate(963.000000, 3371.000000)"></g>
            <circle id="Oval-98-Copy-7" fill="#FFFFFF" cx="618.803627" cy="3440.77281" r="1"></circle>
            <path d="M993.695811,3177.24992 L980.848778,3177.24992 C943.258612,3177.24992 912.879005,3201.45826 912.879005,3231.32076 C912.879005,3261.1225 943.310109,3285.3916 980.848778,3285.3916 L1006.54284,3285.3916 L335.387181,3285.3916 L385.154848,3285.3916 C422.745013,3285.3916 453.124621,3261.18326 453.124621,3231.32076 C453.124621,3201.51903 422.693517,3177.24992 385.154848,3177.24992 L360.271014,3177.24992 L285.619514,3177.24992 C248.080845,3177.24992 217.649741,3152.98082 217.649741,3123.17908 C217.649741,3093.31659 248.029349,3069.10825 285.619514,3069.10825 L1032.23691,3069.10825 C1069.77558,3069.10825 1100.20668,3093.37735 1100.20668,3123.17908 C1100.20668,3153.04158 1069.82708,3177.24992 1032.23691,3177.24992 L993.695811,3177.24992 Z M380.978978,2963.24768 C380.978978,2933.38519 405.179892,2909.17685 435.046688,2909.17685 L780.394824,2909.17685 C810.255596,2909.17685 834.462534,2933.37862 834.462534,2963.24768 C834.462534,2993.11018 810.26162,3017.31852 780.394824,3017.31852 L435.046688,3017.31852 C405.185916,3017.31852 380.978978,2993.11675 380.978978,2963.24768 Z M546.956746,3499.39384 C546.956746,3469.53134 571.171003,3445.323 601.031181,3445.323 L1068.70014,3445.323 C1098.56463,3445.323 1122.77458,3469.52477 1122.77458,3499.39384 C1122.77458,3529.25633 1098.56032,3553.46467 1068.70014,3553.46467 L601.031181,3553.46467 C571.166695,3553.46467 546.956746,3529.2629 546.956746,3499.39384 Z M1172.76405,3499.39384 C1172.76405,3469.53134 1196.9786,3445.323 1226.84358,3445.323 L1408.914,3445.323 C1438.7813,3445.323 1462.99353,3469.52477 1462.99353,3499.39384 C1462.99353,3529.25633 1438.77898,3553.46467 1408.914,3553.46467 L1226.84358,3553.46467 C1196.97628,3553.46467 1172.76405,3529.2629 1172.76405,3499.39384 Z M335.387181,3339.46244 C335.387181,3309.59994 365.79002,3285.3916 403.372037,3285.3916 L1265.06615,3285.3916 C1302.61315,3285.3916 1333.05101,3309.6607 1333.05101,3339.46244 C1333.05101,3369.32493 1302.64817,3393.53327 1265.06615,3393.53327 L403.372037,3393.53327 C365.825038,3393.53327 335.387181,3369.26417 335.387181,3339.46244 Z"
                  id="background" fill-opacity="0.168619792" fill="#28334C"
                  transform="translate(840.321636, 3231.320760) rotate(-30.000000) translate(-840.321636, -3231.320760) "></path>
        </g>
    </g>
</svg>