<?xml version="1.0" encoding="UTF-8" standalone="no"?>
<svg width="45px" height="51px" viewBox="0 0 45 51" version="1.1" xmlns="http://www.w3.org/2000/svg"
     xmlns:xlink="http://www.w3.org/1999/xlink">
    <!-- Generator: Sketch 39.1 (31720) - http://www.bohemiancoding.com/sketch -->
    <title>christ</title>
    <desc>Created with Sketch.</desc>
    <defs></defs>
    <g id="Page-1" stroke="none" stroke-width="1" fill="none" fill-rule="evenodd">
        <g id="Landing-Copy" transform="translate(-1403.000000, -4536.000000)">
            <g id="christ" transform="translate(1408.000000, 4539.000000)" fill="#5EB4F4">
                <g id="Capa_1">
                    <path d="M31.0904322,39.2909469 C31.3402613,39.2909469 31.5426935,39.5010449 31.5426935,39.7603347 C31.5426935,40.0196245 31.3402613,40.2297224 31.0904322,40.2297224 L4.45441206,40.2297224 C4.20458291,40.2297224 4.00215075,40.0196245 4.00215075,39.7603347 C4.00215075,39.5010449 4.20458291,39.2909469 4.45441206,39.2909469 L31.0904322,39.2909469 L31.0904322,39.2909469 Z M31.0904322,41.0274 L4.45441206,41.0274 C4.20458291,41.0274 4.00215075,41.237498 4.00215075,41.4967878 C4.00215075,41.7560776 4.20458291,41.9661755 4.45441206,41.9661755 L31.0904322,41.9661755 C31.3402613,41.9661755 31.5426935,41.7560776 31.5426935,41.4967878 C31.5426935,41.237498 31.3401709,41.0274 31.0904322,41.0274 L31.0904322,41.0274 Z M36.9999984,38 L36.9999984,43 L36.9999984,45 C36.9999984,45.1543132 36.9810104,45.742791 36.9999984,45.972683 C37.0129157,46.1290744 4.9721608,45.9726816 4.9721608,45.9726816 C2.69330653,45.9726816 0.0321105528,44.5514694 0.0321105528,40.5460898 L0.0321105528,4.23885306 C0.0320201005,1.90158367 1.7479197,1.06936684e-12 4.0000001,1.06936684e-12 L35.489397,1.06936682e-12 C35.6239649,1.06936682e-12 36.9999984,1.06936682e-12 36.9999984,1 C36.9999984,1 36.9999984,38 36.9999984,38 Z M35.0370452,38.2028122 L31.2192362,38.2028122 L5.13162814,38.2028122 C3.88664322,38.2028122 2.87384925,39.2539592 2.87384925,40.5460898 C2.87384925,41.8382204 3.88664322,42.8893673 5.13162814,42.8893673 L35.0370452,42.8893673 L35.0370452,38.2028122 L35.0370452,38.2028122 Z M35.0370452,43.8281429 L5.13162814,43.8281429 C3.3879799,43.8281429 1.96932663,42.3557673 1.96932663,40.5460898 C1.96932663,38.7364122 3.3879799,37.2640367 5.13162814,37.2640367 L31.2192362,37.2640367 L35.0370452,37.2640367 L35.0370452,36.2880857 L4.36766834,36.2880857 C3.86330653,36.2880857 3.26496482,36.5239061 2.68263317,36.9519878 C2.60321608,37.0102857 2.51194975,37.0383551 2.42149749,37.0383551 C2.27984925,37.038449 2.14028141,36.9695429 2.05209045,36.8403673 C1.90772864,36.6287673 1.9559397,36.3358694 2.15963819,36.1859469 C2.89338693,35.6464327 3.67751759,35.3493102 4.36757789,35.3493102 L4.51980905,35.3493102 L4.51980905,33.905098 C4.51980905,33.6458082 4.72224121,33.4357102 4.97207035,33.4357102 C5.2218995,33.4357102 5.42433166,33.6458082 5.42433166,33.905098 L5.42433166,35.3493102 L35.0370452,35.3493102 L35.0370452,0.93877551 L5.42442211,0.93877551 L5.42442211,30.3003878 C5.42442211,30.5596776 5.22198995,30.7697755 4.9721608,30.7697755 C4.72233166,30.7697755 4.5198995,30.5596776 4.5198995,30.3003878 L4.5198995,10.4912281 L4.5198995,0.93877551 L4.11630151,0.93877551 C2.36297487,0.93877551 0.936633166,2.41922449 0.936633166,4.23885306 L0.936633166,40.5460898 C0.936633166,44.8175184 4.29829146,45.0339061 4.9721608,45.0339061 L35.0370452,45.0339061 L35.0370452,43.8281429 Z"
                          id="Shape"></path>
                </g>
            </g>
            <path d="M1428.32707,4552.20793 L1428.32707,4547 L1425.38293,4547 L1425.38293,4552.20793 L1420.02107,4552.20793 L1420.02107,4555.15207 L1425.38293,4555.15207 L1425.38293,4560.36 L1428.32707,4560.36 L1428.32707,4555.15207 L1433.68893,4555.15207 L1433.68893,4552.20793 L1428.32707,4552.20793 Z"
                  id="Combined-Shape" fill="#5EB4F4"></path>
            <path d="M1416,4584 L1419.038,4580.962 C1419.569,4580.431 1420.431,4580.431 1420.962,4580.962 L1424,4584 L1424,4576 L1416,4576 L1416,4584 L1416,4584 Z"
                  id="Shape" fill="#FFD377"></path>
        </g>
    </g>
</svg>