<?xml version="1.0" encoding="UTF-8" standalone="no"?>
<svg width="42px" height="46px" viewBox="0 0 42 46" version="1.1" xmlns="http://www.w3.org/2000/svg"
     xmlns:xlink="http://www.w3.org/1999/xlink">
    <!-- Generator: Sketch 39.1 (31720) - http://www.bohemiancoding.com/sketch -->
    <title>Group</title>
    <desc>Created with Sketch.</desc>
    <defs></defs>
    <g id="Page-1" stroke="none" stroke-width="1" fill="none" fill-rule="evenodd">
        <g id="Group" stroke-width="2">
            <g transform="translate(10.000000, 9.000000)" id="Shape">
                <path d="M16,28 L16,26 C16,21.42 22,17.08 22,11 C22,4.93 17.08,0 11,0 C4.93,0 0,4.93 0,11 C0,17.08 6,21.42 6,26 L6,28"
                      stroke="#E0E0E0" fill="#F9F9F9"></path>
                <polyline stroke="#FFCF4B" points="11 22 6 10 9 12 11 10 13 12 16 10 11 22"></polyline>
            </g>
            <g transform="translate(10.000000, 9.000000)" id="Shape" stroke="#5EB4F4">
                <path d="M16,28 L16,26 C16,21.42 22,17.08 22,11 C22,4.93 17.08,0 11,0 C4.93,0 0,4.93 0,11 C0,17.08 6,21.42 6,26 L6,28"></path>
                <path d="M11,28 L16,28 L16,32 C16,34.21 14,35 13,36 L9,36 C8,35 6,34.21 6,32 L6,28 L11,28"></path>
            </g>
            <g opacity="0.683243937" id="Shape" stroke="#FFCF4B">
                <path d="M8.37,32.38 L5.39,35.05"></path>
                <path d="M4.21,23.66 L0.26,24.28"></path>
                <path d="M5.47,14.08 L1.82,12.46"></path>
                <path d="M11.74,6.74 L9.56,3.39"></path>
                <path d="M21,4 L21,0"></path>
                <path d="M30.26,6.74 L32.44,3.39"></path>
                <path d="M36.53,14.08 L40.18,12.46"></path>
                <path d="M37.79,23.66 L41.74,24.29"></path>
                <path d="M33.63,32.37 L36.61,35.05"></path>
            </g>
        </g>
    </g>
</svg>