<?xml version="1.0" encoding="UTF-8" standalone="no"?>
<svg width="59px" height="55px" viewBox="0 0 59 55" version="1.1" xmlns="http://www.w3.org/2000/svg"
     xmlns:xlink="http://www.w3.org/1999/xlink">
    <!-- Generator: Sketch 39.1 (31720) - http://www.bohemiancoding.com/sketch -->
    <title>Clipped Copy</title>
    <desc>Created with Sketch.</desc>
    <defs>
        <path d="M46,36 C46,37.1 45.1,38 44,38 L2,38 C0.9,38 0,37.1 0,36 L0,2 C0,0.9 0.9,0 2,0 L44,0 C45.1,0 46,0.9 46,2 L46,36 L46,36 Z"
              id="path-1"></path>
        <polygon id="path-3" points="0 0 26 26 32 26 32 0"></polygon>
        <polygon id="path-5" points="0 12 16 28 24 20 32 28 32 0 0 0"></polygon>
    </defs>
    <g id="Page-1" stroke="none" stroke-width="1" fill="none" fill-rule="evenodd">
        <g id="Landing-Copy" transform="translate(-1373.000000, -4318.000000)">
            <g id="Clipped-Copy" transform="translate(1381.000000, 4326.000000)">
                <mask id="mask-2" fill="white">
                    <use xlink:href="#path-1"></use>
                </mask>
                <g id="Shape"></g>
                <g id="Group" mask="url(#mask-2)">
                    <g id="Clipped" transform="translate(14.000000, 12.000000)">
                        <mask id="mask-4" fill="white">
                            <use xlink:href="#path-3"></use>
                        </mask>
                        <g id="Shape"></g>
                        <path d="M32,16 L32,24 C32,25.1 31.1,26 30,26 L16,26 L16,16 L24,8 L32,16 Z" id="Shape"
                              stroke="#B7D3F2" stroke-width="2" fill="#C9DBEF" mask="url(#mask-4)"></path>
                    </g>
                    <path d="M14,12 L0,26 L0,36 C0,37.1 0.9,38 2,38 L40,38 L14,12 L14,12 Z" id="Shape" stroke="#C9DBEF"
                          stroke-width="2" fill="#DEE7F6"></path>
                    <g id="Clipped" transform="translate(14.000000, 0.000000)">
                        <mask id="mask-6" fill="white">
                            <use xlink:href="#path-5"></use>
                        </mask>
                        <g id="Shape"></g>
                        <circle id="Oval" stroke="#F1F0C2" stroke-width="2" fill="#FBDD8C" mask="url(#mask-6)" cx="17"
                                cy="11" r="5"></circle>
                    </g>
                </g>
            </g>
            <path d="M1425,4326 C1426.1,4326 1427,4326.9 1427,4328 L1427,4362 C1427,4363.1 1426.1,4364 1425,4364 L1383,4364 C1381.9,4364 1381,4363.1 1381,4362 L1381,4328 C1381,4326.9 1381.9,4326 1383,4326 L1404,4326 L1425,4326 Z"
                  id="Shape" stroke="#637A9D" stroke-width="2"></path>
        </g>
    </g>
</svg>