<svg version="1.1" xmlns="http://www.w3.org/2000/svg" xmlns:xlink="http://www.w3.org/1999/xlink" viewBox="0 0 60 60" xml:space="preserve" data-shift="" data-animoptions="{'duration':'0.7', 'repeat':'2', 'repeatDelay':'0'}">
	<g class="lievo-main" transform="rotate(270, 30, 30)">
		<g class="lievo-common">
			<circle fill="#004B8D" stroke="#ffffff" stroke-width="2" stroke-linecap="square" stroke-miterlimit="10" cx="30" cy="30" r="23" data-animdata="
				{
					'steps':[
						{
							'duration':'1',
							'vars':{
								'scaleX':'1.05',
								'scaleY':'0.95',
								'svgOrigin':'30px 30px',
								'repeat':'1',
								'repeatDelay':'0',
								'yoyo':'true'
							},
							'position':'0.1'
						}
					]
				}
			"/>
		</g>
		
		<g class="lievo-filledicon lievo-lineicon">
			<polyline class="lievo-donotdraw lievo-altstroke" fill="none" stroke="#ffffff" stroke-width="2" stroke-linecap="square" stroke-miterlimit="10" points="28,18 35,30 28,42" opacity="0" data-animdata="
				{
					'steps':[
						{
							'duration':'0',
							'vars':{
								'opacity':'1',
								'repeat':'1',
								'repeatDelay':'2',
								'yoyo':'true',
								'ease':'none'
							},
							'position':'0'
						},
						{
							'duration':'1',
							'vars':{
								'x':'-8',
								'repeat':'1',
								'repeatDelay':'0',
								'yoyo':'true',
								'ease':'none'
							},
							'position':'0.001'
						}
					]
				}
			"/>
			<polyline class="lievo-donotdraw lievo-altstroke" fill="none" stroke="#ffffff" stroke-width="2" stroke-linecap="square" stroke-miterlimit="10" points="28,18 35,30 28,42" opacity="0" data-animdata="
				{
					'steps':[
						{
							'duration':'0',
							'vars':{
								'opacity':'1',
								'repeat':'1',
								'repeatDelay':'2',
								'yoyo':'true',
								'ease':'none'
							},
							'position':'0'
						}
					]
				}
			"/>
			<polyline class="lievo-altstroke" fill="none" stroke="#ffffff" stroke-width="2" stroke-linecap="square" stroke-miterlimit="10" points="28,18 35,30 28,42" data-animdata="
				{
					'steps':[
						{
							'duration':'1',
							'vars':{
								'x':'+8',
								'repeat':'1',
								'repeatDelay':'0',
								'yoyo':'true',
								'ease':'none'
							},
							'position':'0.001'
						}
					]
				}
			"/>
		</g>

		<g class="lievo-solidicon">
			<polyline class="lievo-donotdraw lievo-solidbg" fill="none" stroke="#34495E" stroke-width="2" stroke-linecap="square" stroke-miterlimit="10" points="28,18 35,30 28,42" opacity="0" data-animdata="
				{
					'steps':[
						{
							'duration':'0',
							'vars':{
								'opacity':'1',
								'repeat':'1',
								'repeatDelay':'2',
								'yoyo':'true',
								'ease':'none'
							},
							'position':'0'
						},
						{
							'duration':'1',
							'vars':{
								'x':'-8',
								'repeat':'1',
								'repeatDelay':'0',
								'yoyo':'true',
								'ease':'none'
							},
							'position':'0.001'
						}
					]
				}
			"/>
			<polyline class="lievo-donotdraw lievo-solidbg" fill="none" stroke="#34495E" stroke-width="2" stroke-linecap="square" stroke-miterlimit="10" points="28,18 35,30 28,42" opacity="0" data-animdata="
				{
					'steps':[
						{
							'duration':'0',
							'vars':{
								'opacity':'1',
								'repeat':'1',
								'repeatDelay':'2',
								'yoyo':'true',
								'ease':'none'
							},
							'position':'0'
						}
					]
				}
			"/>
			<polyline class="lievo-solidbg" fill="none" stroke="#34495E" stroke-width="2" stroke-linecap="square" stroke-miterlimit="10" points="28,18 35,30 28,42" data-animdata="
				{
					'steps':[
						{
							'duration':'1',
							'vars':{
								'x':'+8',
								'repeat':'1',
								'repeatDelay':'0',
								'yoyo':'true',
								'ease':'none'
							},
							'position':'0.001'
						}
					]
				}
			"/>
		</g>
	</g>
</svg>