<svg version="1.1" xmlns="http://www.w3.org/2000/svg" xmlns:xlink="http://www.w3.org/1999/xlink" viewBox="0 0 60 60" xml:space="preserve" data-animoptions="{'duration':'0.2', 'repeat':'2', 'repeatDelay':'0.3'}">
	<g class="lievo-main">
		<g class="lievo-common">
			<path class="lievo-altstroke" fill="none" stroke="#47BEF5" stroke-width="2" stroke-miterlimit="10" d="M30,16c6.88-6.87,14.43-6.18,19.18-1.52c4.95,4.85,5.24,12.84,0,17.98C43.94,37.6,30,49,30,49S15.98,37.6,10.73,32.46c-5.24-5.14-4.76-13.13,0.19-17.98C15.43,10.05,22.84,8.87,30,16z" data-animdata="
				{
					'steps':[
						{
							'duration':'0.3',
							'vars':{
								'scale':'1.2',
								'transformOrigin':'center center',
								'repeat':'1',
								'repeatDelay':'0.4',
								'yoyo':'true'
							},
							'position':'0'
						}
					]
				}
			"/>
			<polygon class="lievo-likestroke lievo-altstroke lievo-solidbg" fill="#FCDD74" stroke="#FCDD74" stroke-width="0" points="30,23.1 25.67,26.28 27.34,21.15 23,18 28.36,18 30,12.86 31.64,18 37,18 32.66,21.15 34.32,26.28"/>
		</g>
	</g>
</svg>