<?xml version="1.0" encoding="UTF-8" standalone="no"?>
<svg width="67px" height="58px" viewBox="0 0 67 58" version="1.1" xmlns="http://www.w3.org/2000/svg"
     xmlns:xlink="http://www.w3.org/1999/xlink">
    <!-- Generator: Sketch 39.1 (31720) - http://www.bohemiancoding.com/sketch -->
    <title>Group-6</title>
    <desc>Created with Sketch.</desc>
    <defs>
        <path d="M8.36796555,50.0811298 C8.36796555,50.0811298 29.2721323,45.7318286 29.2721323,34.746914 C29.6129602,22.9841713 28.9313037,16.3848766 29.2721316,4.62213391 C28.9313051,1.73083707 25.5846437,-8.34224433 20.5482482,17.4862834 C20.2372841,19.0160227 19.8942751,20.4208638 19.5273429,21.7109298 C15.7536826,34.9784253 9.44970894,36.106404 9.44970894,36.106404 C9.50262861,36.8843836 4.5999255,44.124208 4.5999255,44.124208 C4.5999255,44.124208 8.36796553,50.0811298 8.36796555,50.0811298 Z"
              id="path-1"></path>
        <mask id="mask-2" maskContentUnits="userSpaceOnUse" maskUnits="objectBoundingBox" x="-1.5" y="-1.5"
              width="27.7705953" height="52.8229387">
            <rect x="3.0999255" y="-1.24180896" width="27.7705953" height="52.8229387" fill="white"></rect>
            <use xlink:href="#path-1" fill="black"></use>
        </mask>
        <path d="M8.95648759,50.0811298 C8.95648759,50.0811298 31.1671648,45.7318286 31.1671648,34.746914 C31.5292944,22.9841713 30.8050344,16.3848766 31.167164,4.62213391 C30.8050359,1.73083707 27.2492081,-8.34224433 21.8980379,17.4862834 C18.1696947,34.7484025 10.1058399,36.106404 10.1058399,36.106404 C10.1620671,36.8843836 4.95294504,44.124208 4.95294504,44.124208 C4.95294504,44.124208 8.95648757,50.0811298 8.95648759,50.0811298 Z"
              id="path-3"></path>
        <mask id="mask-4" maskContentUnits="userSpaceOnUse" maskUnits="objectBoundingBox" x="-1.5" y="-1.5"
              width="29.3187575" height="52.8229387">
            <rect x="3.45294504" y="-1.24180896" width="29.3187575" height="52.8229387" fill="white"></rect>
            <use xlink:href="#path-3" fill="black"></use>
        </mask>
    </defs>
    <g id="Page-1" stroke="none" stroke-width="1" fill="none" fill-rule="evenodd">
        <g id="Landing-Copy" transform="translate(-1560.000000, -4509.000000)">
            <g id="Earth" opacity="0.850104944"
               transform="translate(1810.657161, 4468.657161) rotate(-45.000000) translate(-1810.657161, -4468.657161) translate(1659.157161, 4323.657161)">
                <g id="Path-12-+-Path-13-Mask">
                    <path d="M65.5865738,95.2515368 C83.4622712,103.439609 76.2499436,62.8765018 94.4238919,73.2436016 C98.5716051,75.6096124 101.88508,78.2854651 104.66406,81.0960776 C106.457673,82.9101068 108.028633,84.7802727 109.457529,86.6595024 C115.51532,94.6264799 119.019758,102.756363 126.111596,107.462304 C129.028011,109.397554 133.823199,110.553915 139.147325,110.840079 C143.047026,111.049682 147.2305,110.792428 151.167313,110.032437 C162.785013,107.78967 172.254632,101.16874 165.944268,89.2475273 C154.576135,67.7714421 172.466397,64.8911877 178.340121,53.3864436 C184.213845,41.8816995 189.204952,29.0454314 183.154291,11.8686429 C177.103629,-5.30814549 154.576132,1.7282966 154.576132,1.7282966 L2.94393743,67.7714446 C2.94393743,67.7714446 47.7108764,87.0634645 65.5865738,95.2515368 Z"
                          id="Path-13" fill="#EAF1FB"></path>
                    <path d="M107.457529,91.6595024 C113.51532,99.6264799 117.019758,107.756363 124.111596,112.462304 C127.028011,114.397554 131.823199,115.553915 137.147325,115.840079 M149.167313,115.032437 C160.785013,112.78967 170.254632,106.16874 163.944268,94.2475273 C152.576135,72.7714421 170.466397,69.8911877 176.340121,58.3864436 C182.213845,46.8816995 187.204952,34.0454314 181.154291,16.8686429 C175.103629,-0.308145488 152.576132,6.7282966 152.576132,6.7282966 L0.943937428,72.7714446 C0.943937428,72.7714446 45.7108764,92.0634645 63.5865738,100.251537 L63.5865738,100.251537 C81.4622712,108.439609 74.2499436,67.8765018 92.4238919,78.2436016 C96.5716051,80.6096124 99.8850799,83.2854651 102.66406,86.0960776"
                          id="Path-13" stroke="#7C8495" stroke-width="4" stroke-linecap="round"></path>
                </g>
            </g>
            <g id="Group-6" transform="translate(1561.000000, 4511.000000)">
                <g id="pray">
                    <path d="M16.2671709,18.662693 C16.2671709,17.7337767 17.0202187,16.9807412 17.9519912,16.9807412 L22.4360721,16.9807412 C23.3665727,16.9807412 24.1208924,17.7381042 24.1208924,18.662693 L24.1208924,37.6763207 C24.1208924,38.6052371 23.3678446,39.3582726 22.4360721,39.3582726 L17.9519912,39.3582726 C17.0214906,39.3582726 16.2671709,38.6009096 16.2671709,37.6763207 L16.2671709,18.662693 Z"
                          id="Rectangle-786" stroke="#5EB4F4" stroke-width="1.5"></path>
                    <g id="Path-296">
                        <use fill="#36425F" fill-rule="evenodd" xlink:href="#path-1"></use>
                        <use stroke="#5EB4F4" mask="url(#mask-2)" stroke-width="3" xlink:href="#path-1"></use>
                    </g>
                    <polygon id="Path-602" stroke="#5EB4F4" stroke-width="1.5" fill="#FFD377"
                             points="11.7801255 34.1274256 20.5189295 47.4844392 7.39174343 54.5368688 0.463034639 43.7120165"></polygon>
                </g>
                <g id="pray-copy-2"
                   transform="translate(49.000000, 27.500000) scale(-1, 1) translate(-49.000000, -27.500000) translate(33.000000, 0.000000)">
                    <rect id="Rectangle-786" stroke="#5EB4F4" stroke-width="1.5" x="17.3493932" y="16.9807412"
                          width="8.34457917" height="22.3775314" rx="1.68991888"></rect>
                    <g id="Path-296">
                        <use fill="#36425F" fill-rule="evenodd" xlink:href="#path-3"></use>
                        <use stroke="#5EB4F4" mask="url(#mask-4)" stroke-width="3" xlink:href="#path-3"></use>
                    </g>
                    <polygon id="Path-602" stroke="#5EB4F4" stroke-width="1.5" fill="#FFD377"
                             points="12.5819075 34.1274256 21.8668867 47.4844392 7.91925159 54.5368688 0.557498497 43.7120165"></polygon>
                </g>
            </g>
        </g>
    </g>
</svg>